{
    "auto_calibration_time_ms": 500,
    "auto_calibration_num_samples": 10,
    "motor_balancing": {
      "left": 0.96,
      "right": 1.0
    },
    "IMU" : {
        "sample_rate" : 200
    },
    "EKF" : {
      "state_variances" : [0.00001,0.00001,0.00001,0.0001,0.0001,0.0001],
      "observation_variances" : [0.5,0.5,0.1,0.2],
      "print_steps" : false,
      "print_debug" : false,
      "model" : {
        "radius" : 0.095,
        "sensor_rotation_deg" : 0
      }
    }
}
